…
In this tutorial we will model [Covid hospitalizations in New York City between December 2020 and March 2021,](https://health.data.ny.gov/Health/New-York-State-Statewide-COVID-19-Hospitalizations/jw46-jpb7/explore/query/SELECT%0A%20%20%60as_of_date%60%2C%0A%20%20sum%28%60patients_currently%60%29%20AS%20%60sum_patients_currently%60%0AWHERE%0A%20%20%28%60ny_forward_region%60%20IN%20%28%27NEW%20YORK%20CITY%27%29%29%0A%20%20AND%20%28%60as_of_date%60%0A%20%20%20%20%20%20%20%20%20BETWEEN%20%272020-12-01T00%3A00%3A00%27%20%3A%3A%20floating_timestamp%0A%20%20%20%20%20%20%20%20%20AND%20%272021-04-01T00%3A00%3A00%27%20%3A%3A%20floating_timestamp%29%0AGROUP%20BY%20%60as_of_date%60/page/column_manager).
and look at how some possible interventions could have played out.
```julia
using CSV
using DataFrames
hospitalization_data = CSV.read("dataset.csv", DataFrame)
```

```
102×2 DataFrame
 Row │ Date        Hospitalized
     │ String15    Int64
─────┼──────────────────────────
   1 │ 12/01/2020          1204
   2 │ 12/02/2020          1255
   3 │ 12/03/2020          1306
   4 │ 12/04/2020          1354
   5 │ 12/05/2020          1375
   6 │ 12/06/2020          1416
   7 │ 12/07/2020          1476
   8 │ 12/08/2020          1524
  ⋮  │     ⋮            ⋮
  96 │ 03/06/2021          2826
  97 │ 03/07/2021          2872
  98 │ 03/08/2021          2931
  99 │ 03/09/2021          2885
 100 │ 03/10/2021          2854
 101 │ 03/11/2021          2781
 102 │ 03/12/2021          2760
                 87 rows omitted
```
…
